{
  "education": {
    "id": "education"
  },
  "income": {
    "id": "income"
  },
  "employment": {
    "id":"employment"
  },
  "companyName": {
    "id":"companyName"
  },
  "paymentsAmount": {
    "id":"paymentsAmount"
  },
  "companyPhoneNumber": {
    "id":"companyPhoneNumber-visible"
  },
  "salaryFrequency": {
    "id":"salaryFrequency"
  },
  "calendarBtn": {
    "css" : "button.multiple-date-picker__dateBtn"
  },
  "calendar": {
    "css" : "div.multiple-date-picker"
  },
  "submit": {
    "css": "button.btn-mx"
  }
}
