{
  "countDays": {
    "css" : "input[name=\"calcDate\"]"
  },
  "amount": {
    "css" :  "input[name=\"calcAmount\"]"
  },
  "promoCodeCheckBox": {
    "css" : "div.mm-calculator-promocode label"
  },
  "promoCode": {
    "id" : "promoCode"
  },
  "submit": {
    "css": "button.btn-mx"
  }
}